
{
  "header": {
    "event": "Allocation failed - JavaScript heap out of memory",
    "trigger": "FatalError",
    "filename": "report.20190724.034108.2936.0.001.json",
    "dumpEventTime": "2019-07-24T03:41:08Z",
    "dumpEventTimeStamp": "1563918068483",
    "processId": 2936,
    "cwd": "C:\\Users\\Acer\\Desktop\\startbootstrap-modern-business-gh-pages",
    "commandLine": [
      "node",
      "C:\\Users\\Acer\\Desktop\\startbootstrap-modern-business-gh-pages\\node_modules\\.bin\\\\..\\gulp\\bin\\gulp.js",
      "watch"
    ],
    "nodejsVersion": "v12.1.0",
    "wordSize": 64,
    "arch": "x64",
    "platform": "win32",
    "componentVersions": {
      "node": "12.1.0",
      "v8": "7.4.288.21-node.16",
      "uv": "1.28.0",
      "zlib": "1.2.11",
      "brotli": "1.0.7",
      "ares": "1.15.0",
      "modules": "72",
      "nghttp2": "1.38.0",
      "napi": "4",
      "llhttp": "1.1.1",
      "http_parser": "2.8.0",
      "openssl": "1.1.1b",
      "cldr": "35.1",
      "icu": "64.2",
      "tz": "2019a",
      "unicode": "12.1"
    },
    "release": {
      "name": "node",
      "headersUrl": "https://nodejs.org/download/release/v12.1.0/node-v12.1.0-headers.tar.gz",
      "sourceUrl": "https://nodejs.org/download/release/v12.1.0/node-v12.1.0.tar.gz",
      "libUrl": "https://nodejs.org/download/release/v12.1.0/win-x64/node.lib"
    },
    "osName": "Windows_NT",
    "osRelease": "10.0.16299",
    "osVersion": "Windows 10 Home Single Language",
    "osMachine": "x86_64",
    "host": "LAPTOP-MH5I20QN"
  },
  "javascriptStack": {
    "message": "No stack.",
    "stack": [
      "Unavailable."
    ]
  },
  "nativeStack": [
    {
      "pc": "0x00007ff7a33c4bb9",
      "symbol": "std::basic_ostream<char,std::char_traits<char> >::operator<<+9161"
    },
    {
      "pc": "0x00007ff7a33c85a6",
      "symbol": "std::basic_ostream<char,std::char_traits<char> >::operator<<+23990"
    },
    {
      "pc": "0x00007ff7a33c7535",
      "symbol": "std::basic_ostream<char,std::char_traits<char> >::operator<<+19781"
    },
    {
      "pc": "0x00007ff7a34af3fb",
      "symbol": "uv_loop_fork+47931"
    },
    {
      "pc": "0x00007ff7a37e40be",
      "symbol": "v8::internal::Parser::ReportMessageAt+206"
    },
    {
      "pc": "0x00007ff7a37b813a",
      "symbol": "v8::internal::wasm::StreamingDecoder::NotifyCompilationEnded+666"
    },
    {
      "pc": "0x00007ff7a384e57c",
      "symbol": "v8::internal::Heap::CreateFillerObjectAt+2972"
    },
    {
      "pc": "0x00007ff7a38562ef",
      "symbol": "v8::internal::LocalEmbedderHeapTracer::NotifyV8MarkingWorklistWasEmpty+5375"
    },
    {
      "pc": "0x00007ff7a384c963",
      "symbol": "v8::internal::Heap::CollectGarbage+1235"
    },
    {
      "pc": "0x00007ff7a384b064",
      "symbol": "v8::internal::GCTracer::AddScopeSample+1316"
    },
    {
      "pc": "0x00007ff7a388bc93",
      "symbol": "v8::internal::Factory::NewFillerObject+67"
    },
    {
      "pc": "0x00007ff7a3bb25d6",
      "symbol": "v8::internal::OptimizingCompileDispatcher::Unblock+116966"
    },
    {
      "pc": "0x00007ff7a404d146",
      "symbol": "v8::internal::NativesCollection<0>::GetScriptsSource+660214"
    }
  ],
  "javascriptHeap": {
    "totalMemory": 2180681728,
    "totalCommittedMemory": 2180681728,
    "usedMemory": 2064805704,
    "availableMemory": 48366736,
    "memoryLimit": 2197815296,
    "heapSpaces": {
      "read_only_space": {
        "memorySize": 524288,
        "committedMemory": 524288,
        "capacity": 523976,
        "used": 31712,
        "available": 492264
      },
      "new_space": {
        "memorySize": 33554432,
        "committedMemory": 33554432,
        "capacity": 16767232,
        "used": 3211064,
        "available": 13556168
      },
      "old_space": {
        "memorySize": 2082070528,
        "committedMemory": 2082070528,
        "capacity": 1998396296,
        "used": 1998231656,
        "available": 164640
      },
      "code_space": {
        "memorySize": 1212416,
        "committedMemory": 1212416,
        "capacity": 1131072,
        "used": 878208,
        "available": 252864
      },
      "map_space": {
        "memorySize": 1576960,
        "committedMemory": 1576960,
        "capacity": 774480,
        "used": 774480,
        "available": 0
      },
      "large_object_space": {
        "memorySize": 61693952,
        "committedMemory": 61693952,
        "capacity": 61675128,
        "used": 61675128,
        "available": 0
      },
      "code_large_object_space": {
        "memorySize": 49152,
        "committedMemory": 49152,
        "capacity": 3456,
        "used": 3456,
        "available": 0
      },
      "new_large_object_space": {
        "memorySize": 0,
        "committedMemory": 0,
        "capacity": 16767232,
        "used": 0,
        "available": 16767232
      }
    }
  },
  "resourceUsage": {
    "userCpuSeconds": 2262.08,
    "kernelCpuSeconds": 2203.45,
    "cpuConsumptionPercent": 13.4747,
    "maxRss": 3097812992,
    "pageFaults": {
      "IORequired": 8331887,
      "IONotRequired": 0
    },
    "fsActivity": {
      "reads": 1874,
      "writes": 32
    }
  },
  "libuv": [
  ],
  "environmentVariables": {
    "=C:": "C:\\Users\\Acer\\Desktop\\startbootstrap-modern-business-gh-pages",
    "FPS_BROWSER_APP_PROFILE_STRING": "Internet Explorer",
    "CommonProgramFiles": "C:\\Program Files\\Common Files",
    "INIT_CWD": "C:\\Users\\Acer\\Desktop\\startbootstrap-modern-business-gh-pages",
    "PROMPT": "$P$G",
    "SESSIONNAME": "Console",
    "COMPUTERNAME": "LAPTOP-MH5I20QN",
    "OneDriveConsumer": "C:\\Users\\Acer\\OneDrive",
    "__INTELLIJ_COMMAND_HISTFILE__": "C:\\Users\\Acer\\.WebStorm2019.1\\config\\terminal\\history\\history-10",
    "SystemDrive": "C:",
    "NUMBER_OF_PROCESSORS": "8",
    "LOGONSERVER": "\\\\LAPTOP-MH5I20QN",
    "WebStorm": "C:\\Program Files\\JetBrains\\WebStorm 2019.1.1\\bin;",
    "TMP": "C:\\Users\\Acer\\AppData\\Local\\Temp",
    "HOMEPATH": "\\Users\\Acer",
    "PATHEXT": ".COM;.EXE;.BAT;.CMD;.VBS;.VBE;.JSE;.WSF;.WSH;.MSC;.RB;.RBW",
    "=::": "::\\",
    "USERNAME": "Acer",
    "ProgramFiles": "C:\\Program Files",
    "USERDOMAIN_ROAMINGPROFILE": "LAPTOP-MH5I20QN",
    "CommonProgramFiles(x86)": "C:\\Program Files (x86)\\Common Files",
    "LOCALAPPDATA": "C:\\Users\\Acer\\AppData\\Local",
    "TERMINAL_EMULATOR": "JetBrains-JediTerm",
    "TEMP": "C:\\Users\\Acer\\AppData\\Local\\Temp",
    "APPDATA": "C:\\Users\\Acer\\AppData\\Roaming",
    "ALLUSERSPROFILE": "C:\\ProgramData",
    "USERDOMAIN": "LAPTOP-MH5I20QN",
    "PROCESSOR_LEVEL": "6",
    "ProgramData": "C:\\ProgramData",
    "ComSpec": "C:\\WINDOWS\\system32\\cmd.exe",
    "PROCESSOR_ARCHITECTURE": "AMD64",
    "FPS_BROWSER_USER_PROFILE_STRING": "Default",
    "SystemRoot": "C:\\WINDOWS",
    "PROCESSOR_REVISION": "8e0a",
    "OneDrive": "C:\\Users\\Acer\\OneDrive",
    "PSModulePath": "C:\\Program Files\\WindowsPowerShell\\Modules;C:\\WINDOWS\\system32\\WindowsPowerShell\\v1.0\\Modules",
    "PATH": "C:\\Users\\Acer\\Desktop\\startbootstrap-modern-business-gh-pages\\node_modules\\.bin;C:\\Program Files (x86)\\Intel\\iCLS Client\\;C:\\Program Files\\Intel\\iCLS Client\\;C:\\Windows\\system32;C:\\Windows;C:\\Windows\\System32\\Wbem;C:\\Windows\\System32\\WindowsPowerShell\\v1.0\\;C:\\Program Files\\Intel\\WiFi\\bin\\;C:\\Program Files\\Common Files\\Intel\\WirelessCommon\\;C:\\Program Files (x86)\\NVIDIA Corporation\\PhysX\\Common;C:\\Program Files (x86)\\Intel\\Intel(R) Management Engine Components\\DAL;C:\\Program Files\\Intel\\Intel(R) Management Engine Components\\DAL;C:\\Program Files (x86)\\Intel\\Intel(R) Management Engine Components\\IPT;C:\\Program Files\\Intel\\Intel(R) Management Engine Components\\IPT;C:\\WINDOWS\\system32;C:\\WINDOWS;C:\\WINDOWS\\System32\\Wbem;C:\\WINDOWS\\System32\\WindowsPowerShell\\v1.0\\;C:\\Program Files\\nodejs\\;C:\\Program Files\\Git\\cmd;C:\\Ruby26-x64\\bin;C:\\Users\\Acer\\AppData\\Local\\Microsoft\\WindowsApps;C:\\Program Files\\JetBrains\\WebStorm 2019.1.1\\bin;;C:\\Users\\Acer\\AppData\\Roaming\\npm;",
    "ProgramFiles(x86)": "C:\\Program Files (x86)",
    "USERPROFILE": "C:\\Users\\Acer",
    "windir": "C:\\WINDOWS",
    "ProgramW6432": "C:\\Program Files",
    "OS": "Windows_NT",
    "PROCESSOR_IDENTIFIER": "Intel64 Family 6 Model 142 Stepping 10, GenuineIntel",
    "PUBLIC": "C:\\Users\\Public",
    "HOMEDRIVE": "C:",
    "CommonProgramW6432": "C:\\Program Files\\Common Files"
  },
  "sharedObjects": [
    "C:\\Program Files\\nodejs\\node.exe",
    "C:\\WINDOWS\\SYSTEM32\\ntdll.dll",
    "C:\\WINDOWS\\System32\\KERNEL32.DLL",
    "C:\\WINDOWS\\System32\\KERNELBASE.dll",
    "C:\\WINDOWS\\SYSTEM32\\apphelp.dll",
    "C:\\WINDOWS\\System32\\WS2_32.dll",
    "C:\\WINDOWS\\System32\\RPCRT4.dll",
    "C:\\WINDOWS\\System32\\ADVAPI32.dll",
    "C:\\WINDOWS\\System32\\msvcrt.dll",
    "C:\\WINDOWS\\System32\\sechost.dll",
    "C:\\WINDOWS\\SYSTEM32\\dbghelp.dll",
    "C:\\WINDOWS\\System32\\USER32.dll",
    "C:\\WINDOWS\\System32\\ucrtbase.dll",
    "C:\\WINDOWS\\System32\\win32u.dll",
    "C:\\WINDOWS\\System32\\GDI32.dll",
    "C:\\WINDOWS\\System32\\gdi32full.dll",
    "C:\\WINDOWS\\System32\\msvcp_win.dll",
    "C:\\WINDOWS\\System32\\PSAPI.DLL",
    "C:\\WINDOWS\\System32\\CRYPT32.dll",
    "C:\\WINDOWS\\SYSTEM32\\IPHLPAPI.DLL",
    "C:\\WINDOWS\\SYSTEM32\\USERENV.dll",
    "C:\\WINDOWS\\System32\\MSASN1.dll",
    "C:\\WINDOWS\\System32\\profapi.dll",
    "C:\\WINDOWS\\SYSTEM32\\WINMM.dll",
    "C:\\WINDOWS\\SYSTEM32\\bcrypt.dll",
    "C:\\WINDOWS\\SYSTEM32\\winmmbase.dll",
    "C:\\WINDOWS\\System32\\cfgmgr32.dll",
    "C:\\WINDOWS\\System32\\IMM32.DLL",
    "C:\\WINDOWS\\System32\\combase.dll",
    "C:\\WINDOWS\\System32\\bcryptPrimitives.dll",
    "C:\\WINDOWS\\System32\\powrprof.dll",
    "C:\\WINDOWS\\system32\\uxtheme.dll",
    "C:\\WINDOWS\\system32\\mswsock.dll",
    "C:\\WINDOWS\\System32\\kernel.appcore.dll",
    "C:\\WINDOWS\\SYSTEM32\\CRYPTBASE.DLL",
    "C:\\WINDOWS\\System32\\NSI.dll",
    "C:\\WINDOWS\\SYSTEM32\\dhcpcsvc6.DLL",
    "C:\\WINDOWS\\SYSTEM32\\dhcpcsvc.DLL",
    "C:\\WINDOWS\\system32\\napinsp.dll",
    "C:\\WINDOWS\\system32\\pnrpnsp.dll",
    "C:\\WINDOWS\\system32\\NLAapi.dll",
    "C:\\WINDOWS\\SYSTEM32\\DNSAPI.dll",
    "C:\\WINDOWS\\System32\\winrnr.dll",
    "C:\\WINDOWS\\System32\\wshbth.dll"
  ]
}